<?xml version="1.0" encoding="UTF-8"?>
<svg width="20px" height="20px" viewBox="0 0 20 20" version="1.1" xmlns="http://www.w3.org/2000/svg" xmlns:xlink="http://www.w3.org/1999/xlink">
    <title>ico_human_20px</title>
    <g id="ico_human_20px" stroke="none" stroke-width="1" fill="none" fill-rule="evenodd">
        <path d="M9.9999765,0.000174280796 C11.0308299,-0.0153115352 11.8160892,1.00894855 11.5274883,1.98070852 L11.5274883,1.98070852 L16.2843496,4.68723796 C17.258125,3.69723576 19.0028109,4.38665136 18.9999926,5.78138101 C18.9999926,6.50794513 18.4940234,7.12029023 17.8110686,7.29415781 L17.8110686,7.29415781 L17.8110686,12.7062011 C18.4940234,12.8800686 18.9999926,13.4923747 18.9999926,14.2189779 C19.0027316,15.613395 17.2586403,16.3032403 16.2843496,15.3131209 L16.2843496,15.3131209 L11.5274883,18.0196504 C11.816327,18.9912541 11.0305921,20.0157095 9.9999765,20.0001846 C8.96916269,20.0156313 8.18386378,18.9913713 8.4724647,18.0196504 L8.4724647,18.0196504 L3.71564304,15.3131209 C2.74186764,16.303084 0.997181771,15.6136685 0.999992636,14.2189779 C0.999992636,13.4923747 1.50596921,12.8800686 2.18892399,12.7062011 L2.18892399,12.7062011 L2.18892399,7.29411875 C1.50600885,7.12025117 0.999992636,6.50790606 0.999992636,5.78138101 C0.997261046,4.38688573 2.74135236,3.69704045 3.71568268,4.6871989 L3.71568268,4.6871989 L4.54648547,4.21446347 C4.73599254,4.10661167 4.97841572,4.17055713 5.08781533,4.35739348 C5.19729421,4.54422983 5.13232828,4.78305849 4.94278158,4.89091029 L4.94278158,4.89091029 L4.11273189,5.36321602 C4.36145745,6.19173349 3.80942545,7.10036832 2.98147656,7.29415781 L2.98147656,7.29415781 L2.98147656,12.7062011 C3.80942545,12.9000687 4.36145745,13.8085082 4.11273189,14.6371429 L4.11273189,14.6371429 L8.86955355,17.3436332 C9.46316532,16.7242178 10.5365499,16.7240615 11.1303994,17.3436332 L11.1303994,17.3436332 L15.8872211,14.6371429 C15.6384559,13.8086644 16.1905275,12.9000296 17.0184368,12.7062011 L17.0184368,12.7062011 L17.0184368,7.29411875 C16.1905275,7.10021207 15.6384559,6.19177255 15.8872211,5.36317696 L15.8872211,5.36317696 L11.1303994,2.65664752 C10.536748,3.27602389 9.46340315,3.27621921 8.86959319,2.65664752 L8.86959319,2.65664752 L8.03213129,3.13317201 C7.84595377,3.24004725 7.60083524,3.17875805 7.49076179,2.99024201 C7.38132255,2.80344472 7.44628848,2.564577 7.63583518,2.4567252 L7.63583518,2.4567252 L8.47250434,1.98070852 C8.18362596,1.00906574 8.96936087,-0.0153505978 9.9999765,0.000174280796 Z M10.7925687,18.4378153 C10.7492052,17.4018755 9.25094594,17.401563 9.20742393,18.4378153 C9.20742393,18.8685194 9.56297264,19.2189108 10.0000161,19.2189108 C10.4370596,19.2189108 10.7926083,18.8684804 10.7925687,18.4378153 Z M10.2208606,4.80017428 C11.4462968,4.80017428 12.4927966,5.21693451 13.2492206,6.00599531 C13.7492088,6.52625949 14.3057011,7.30379371 14.1679996,8.70815414 C14.1535654,8.85529441 14.0901821,8.98294928 14.0392846,9.08551229 C13.9499357,9.26691865 13.9133134,9.35450494 13.9927611,9.50685962 C14.2354785,9.9284814 14.4190275,10.2630658 14.54647,10.5015953 C14.6564651,10.7073835 14.5908325,10.9564164 14.4055664,11.0861511 L14.3305931,11.128892 L14.0407956,11.2605459 C14.0022249,11.278071 13.9757025,11.3140229 13.9708911,11.3556205 C13.9541109,11.4996635 13.9133134,11.8424028 13.882258,12.0410206 C13.7288895,13.0216421 13.6317072,13.4664346 13.4395294,13.6192598 C13.3054464,13.7391941 12.9889117,13.9126119 12.3034315,13.8605036 L12.1242671,13.8426166 L12.0053738,13.825954 C11.6662296,13.776084 11.4805731,13.7751822 11.3639065,13.9047974 C10.9796306,14.6347355 10.6493935,15.3386408 10.6251774,15.4799001 C10.5935653,15.6654231 10.4321646,15.8001743 10.2413786,15.8001743 C10.2195484,15.8001743 10.1978772,15.7984492 10.1769218,15.7949991 C10.073417,15.7776308 9.98363064,15.7219582 9.92330918,15.6379397 C9.86314677,15.5542348 9.83964645,15.4525343 9.85718223,15.3517356 C9.9180689,14.9973634 10.483337,13.9135761 10.6676631,13.5666266 L10.7030346,13.5003087 L10.712061,13.4834108 L10.7240696,13.4683949 C11.1275684,12.9619201 11.6954687,13.0060307 12.0434976,13.0550962 L12.1197341,13.0662586 L12.2215688,13.0805688 C12.702192,13.1377312 12.8894391,13.0591231 12.9247492,13.0412059 C13.081577,12.8654452 13.2136321,11.8066076 13.257571,11.454655 C13.3114507,11.0227612 13.3349113,10.9573656 13.3761462,10.8800512 C13.4093389,10.8178901 13.4648763,10.7849055 13.5289523,10.7626059 L13.5953632,10.743183 L13.6932216,10.7229526 C13.7452324,10.7172678 13.7756914,10.6624577 13.7520718,10.6163906 C13.6840096,10.4837435 13.5238284,10.2345401 13.3876434,10.0083612 L13.3097409,9.87653339 C13.0594751,9.4041888 13.2036106,9.03051139 13.310597,8.80683883 L13.3385298,8.74959492 L13.3920516,8.62919317 C13.5798951,7.62771403 13.0926711,6.96066243 12.6825488,6.53363022 C11.9102989,5.72743638 10.9120722,5.56410401 10.2135043,5.56833826 C8.40974551,5.58115864 7.7396882,6.15278273 7.25325944,6.68751394 C6.70014703,7.29642298 6.49572209,7.8572262 6.42168217,8.22043097 C6.35229902,8.56077427 6.38182034,8.7934084 6.38960027,8.84261032 L6.39428502,8.86764431 L6.39504052,8.88344435 C6.41377583,9.28552845 6.88358007,10.0578698 7.22858301,10.531327 L7.31914781,10.6525386 C8.15017011,11.8294085 7.83700647,12.7825514 7.76762791,12.9580795 L7.75980861,12.9771432 C7.67018134,13.1747809 7.4398305,13.2622104 7.24431262,13.1766236 C7.04990812,13.0918993 6.96016156,12.8657197 7.04469908,12.6726691 C7.05547724,12.6474901 7.29211687,12.0698771 6.78794017,11.2532326 L6.69108092,11.1067014 C6.46302312,10.8044855 5.75581012,9.82054525 5.63737643,9.09627341 L5.6213989,8.9453899 L5.61594087,8.90648906 C5.57319486,8.57266547 5.53377969,7.43048314 6.67378373,6.17469891 C7.28616928,5.50132979 8.10869424,4.87422178 9.93993938,4.80605475 L10.2084941,4.80017428 L10.2208606,4.80017428 Z M18.2073648,14.2189779 C18.1640013,13.182999 16.6657023,13.1826865 16.6221803,14.2189779 C16.6221803,14.6496819 16.977729,15.0000733 17.4147725,15.0000733 C17.8518557,15.0000733 18.2073648,14.6496819 18.2073648,14.2189779 Z M3.37789158,14.2189779 C3.33448847,13.182999 1.83622918,13.1826865 1.79270716,14.2189779 C1.79270716,14.6496819 2.14825587,15.0000733 2.58529937,15.0000733 C3.02230322,15.0000733 3.37789158,14.6496819 3.37789158,14.2189779 Z M17.4147725,5.00028553 C16.977729,5.00028553 16.6221803,5.35067693 16.6221803,5.78138101 C16.6221803,6.21204603 16.977729,6.56243743 17.4147725,6.5624765 C18.4659601,6.51970296 18.4662772,5.04317625 17.4147725,5.00028553 Z M2.58529937,5.00024647 C2.14825587,5.00024647 1.79270716,5.35067693 1.79270716,5.78138101 C1.79270716,6.21204603 2.14825587,6.56243743 2.58529937,6.5624765 C3.63648688,6.51970296 3.63676434,5.04317625 2.58529937,5.00024647 Z M6.50009743,3.00017428 C7.16638285,3.02632951 7.16688548,3.973769 6.50009743,4.00017428 C5.87082787,3.97556658 5.83506145,3.12910686 6.39478827,3.0128031 L6.49974559,3.00017428 L6.50009743,3.00017428 Z M10.7925687,1.56250447 C10.7492052,0.526564667 9.25094594,0.526252166 9.20742393,1.56250447 C9.20742393,1.99320855 9.56297264,2.34363901 10.0000161,2.34363901 C10.4370596,2.34363901 10.7926083,1.99320855 10.7925687,1.56250447 Z" id="Combined-Shape" fill="#444444"></path>
    </g>
</svg>