<svg width="24" height="24" viewBox="0 0 24 24" xmlns="http://www.w3.org/2000/svg" xmlns:xlink="http://www.w3.org/1999/xlink">
    <defs>
        <path id="a" d="M0 0h22v15H0z"/>
    </defs>
    <g fill="none" fill-rule="evenodd">
        <path d="M0 0h24v24H0z"/>
        <g transform="translate(1 5)">
            <mask id="b" fill="#fff">
                <use xlink:href="#a"/>
            </mask>
            <path d="M21.073 11.51h-1.726a1.98 1.98 0 0 0-1.36-.542 2.03 2.03 0 0 0-1.392.55h-2.022V2.958h3.61l2.921 2.42-.031 6.133zm-3.087 2.594c-.618 0-1.138-.51-1.138-1.12 0-.61.52-1.12 1.138-1.12.61 0 1.102.502 1.102 1.12 0 .618-.493 1.12-1.102 1.12zm-10.94 0c-.618 0-1.137-.51-1.137-1.12 0-.61.52-1.12 1.138-1.12.609 0 1.102.502 1.102 1.12 0 .618-.493 1.12-1.102 1.12zM21.835 4.82l-3.207-2.657a.441.441 0 0 0-.287-.103h-3.772V.448A.45.45 0 0 0 14.12 0H2.71a.45.45 0 0 0-.448.448V4.53a.45.45 0 0 0-.439.448.45.45 0 0 0 .448.448h5.434a.45.45 0 0 0 .448-.448.45.45 0 0 0-.448-.448H3.158V.896h10.519V11.52h-5.26a1.98 1.98 0 0 0-1.37-.551 2.03 2.03 0 0 0-1.391.55H3.158V9.526h2.724a.446.446 0 0 0 .448-.448.45.45 0 0 0-.448-.448H.448A.45.45 0 0 0 0 9.077a.45.45 0 0 0 .448.448h1.814v2.442a.45.45 0 0 0 .448.448h2.387a1.983 1.983 0 0 0 .517 1.994c.389.38.895.591 1.433.591a2.01 2.01 0 0 0 1.998-2.016c0-.198-.03-.389-.082-.57h7.073a1.983 1.983 0 0 0 .517 1.994c.39.381.896.592 1.433.592a2.01 2.01 0 0 0 1.998-2.016c0-.2-.03-.395-.084-.578h1.616a.446.446 0 0 0 .448-.444L22 5.17a.473.473 0 0 0-.166-.35zM.914 7.007c0-.246.201-.443.448-.443h.004l5.434.031c.247 0 .448.202.444.452a.452.452 0 0 1-.453.444L1.357 7.46a.444.444 0 0 1-.443-.453zm15.442-1.98h1.675l1.075.968v1.814h-2.75V5.027zm-.896-.444v3.674a.45.45 0 0 0 .448.448h3.646a.45.45 0 0 0 .448-.448v-2.46a.448.448 0 0 0-.148-.331l-1.348-1.214a.435.435 0 0 0-.3-.117h-2.298a.45.45 0 0 0-.448.448z" fill="#305DA8" mask="url(#b)"/>
        </g>
    </g>
</svg>
