<?xml version="1.0" encoding="UTF-8"?>
<svg width="24px" height="24px" viewBox="0 0 24 24" version="1.1" xmlns="http://www.w3.org/2000/svg" xmlns:xlink="http://www.w3.org/1999/xlink">
    <title>ico_play_24px</title>
    <g id="ico_play_24px" stroke="none" stroke-width="1" fill="none" fill-rule="evenodd">
        <path d="M12.020438,2 C14.5806048,2 17.1416058,2.98666667 19.0769552,4.94 C21.0323253,6.89416667 22,9.45166667 22,12.01 C22,14.5675 21.0323253,17.1258333 19.0769552,19.0791667 C17.121585,21.0325 14.5605839,22 12.0004171,22 C9.43941606,22 6.87924922,21.0325 4.92304484,19.0791667 C2.96767466,17.1258333 2,14.5675 2,12.01 C2,9.45166667 2.98769552,6.89416667 4.94306569,4.92 C6.89927007,2.96666667 9.45943691,2 12.020438,2 Z M12.020438,3.02666667 C9.72137643,3.02666667 7.42314911,3.91333333 5.66882169,5.665 C3.91532847,7.4175 3.02773723,9.71333333 3.02773723,12.01 C3.02773723,14.3058333 3.89530761,16.6016667 5.66882169,18.3541667 C7.42314911,20.1066667 9.72137643,20.9925 12.020438,20.9925 C14.3186653,20.9925 16.6168926,20.1066667 18.37122,18.3541667 C20.1455683,16.6016667 21.0123045,14.3058333 21.0123045,12.01 C21.0123045,9.71333333 20.1255474,7.4175 18.37122,5.665 C16.6168926,3.91333333 14.3186653,3.02666667 12.020438,3.02666667 Z M9.60066736,7.47825 C9.88262774,7.39741667 10.205464,7.43741667 10.4874244,7.59908333 L10.4874244,7.59908333 L13.3912826,9.27075 L16.3143274,10.9624167 C16.3143274,10.9624167 17.0000417,11.40575 17.0000417,12.0699167 C17.0000417,12.15075 17.0000417,12.2315833 16.9800209,12.2915833 C16.8991032,12.5940833 16.7180813,12.85575 16.4352868,13.0165833 L16.4352868,13.0165833 L13.4722002,14.7290833 L13.4513452,14.7490833 L13.4313243,14.7490833 L10.568342,16.40075 C10.4674035,16.46075 10.0845047,16.6224167 9.90348279,16.6224167 C9.58064651,16.6224167 9.29785193,16.5015833 9.07678832,16.2799167 C8.87491137,16.07825 8.73393118,15.77575 8.73393118,15.4540833 L8.73393118,15.4540833 L8.73393118,8.52575 C8.75395203,8.44491667 8.75395203,8.36408333 8.77397289,8.30408333 C8.8140146,8.20325 8.83486966,8.10241667 8.89493222,8.02158333 C9.05593326,7.73991667 9.31870699,7.55825 9.60066736,7.47825 Z M9.98356621,8.42491667 L9.88262774,8.42491667 L9.88262774,8.42491667 L9.80254432,8.48491667 C9.80254432,8.50491667 9.78252346,8.52575 9.78252346,8.52575 C9.7616684,8.52575 9.7616684,8.54575 9.7616684,8.54575 L9.7616684,8.54575 L9.7616684,15.41325 C9.7616684,15.4540833 9.78252346,15.5140833 9.80254432,15.5340833 C9.84258603,15.5549167 9.88262774,15.5749167 9.92350365,15.5749167 C9.96354536,15.5749167 10.0644838,15.5340833 10.0845047,15.5140833 L10.0845047,15.5140833 L12.947487,13.8624167 C12.947487,13.8624167 12.9675078,13.8424167 12.9875287,13.8424167 L12.9875287,13.8424167 L15.9114077,12.15075 C15.9514494,12.13075 16.0123462,12.0499167 16.0123462,11.9690833 C16.0123462,11.9090833 15.9314286,11.84825 15.8913869,11.82825 L15.8913869,11.82825 L12.9675078,10.1365833 L12.947487,10.1365833 C12.947487,10.1365833 12.9274661,10.1365833 12.9074453,10.1165833 L12.9074453,10.1165833 L10.044463,8.46491667 C10.0244421,8.44491667 10.0035871,8.44491667 9.98356621,8.42491667 L9.98356621,8.42491667 Z" id="Combined-Shape" fill="#305DA8"></path>
    </g>
</svg>