<?xml version="1.0" encoding="UTF-8"?>
<svg width="24px" height="24px" viewBox="0 0 24 24" version="1.1" xmlns="http://www.w3.org/2000/svg" xmlns:xlink="http://www.w3.org/1999/xlink">
    <title>ico_arrow_down_blue_24px</title>
    <g id="ico_arrow_down_blue_24px" stroke="none" stroke-width="1" fill="none" fill-rule="evenodd">
        <path d="M17.437525,9.17087778 L12.0168028,14.5917167 L6.59580833,9.17083889 C6.36803611,8.94306667 5.99866944,8.94302778 5.77085833,9.17087778 C5.54304722,9.39868889 5.54304722,9.76801667 5.77085833,9.99582778 L11.6043472,15.8291611 C11.7137417,15.9385556 11.8621028,16 12.0168028,16 C12.1715028,16 12.3199028,15.9385167 12.4292583,15.8291222 L18.2624361,9.99578889 C18.4902861,9.76801667 18.4902861,9.39865 18.262475,9.17083889 C18.0347028,8.94306667 17.6653361,8.94302778 17.437525,9.17087778 Z" id="ico_downarrow" fill="#305DA8"></path>
    </g>
</svg>