<?xml version="1.0" encoding="UTF-8"?>
<svg width="24px" height="24px" viewBox="0 0 24 24" version="1.1" xmlns="http://www.w3.org/2000/svg" xmlns:xlink="http://www.w3.org/1999/xlink">
    <title>ico_slice_24px</title>
    <g id="ico_slice_24px" stroke="none" stroke-width="1" fill="none" fill-rule="evenodd" stroke-linecap="square">
        <line x1="7.5" y1="17.5" x2="16.5" y2="6.5" id="Line" stroke="#848680" transform="translate(12.000000, 12.000000) rotate(-9.000000) translate(-12.000000, -12.000000) "></line>
    </g>
</svg>